<?xml version="1.0" standalone="no"?>
<!DOCTYPE svg PUBLIC "-//W3C//DTD SVG 20010904//EN"
 "http://www.w3.org/TR/2001/REC-SVG-20010904/DTD/svg10.dtd">
<svg version="1.0" xmlns="http://www.w3.org/2000/svg"
 width="1167.000000pt" height="1140.000000pt" viewBox="0 0 1167.000000 1140.000000"
 preserveAspectRatio="xMidYMid meet">
<metadata>
Created by potrace 1.16, written by Peter Selinger 2001-2019
</metadata>
<g transform="translate(0.000000,1140.000000) scale(0.100000,-0.100000)"
fill="#000000" stroke="none">
<path d="M27 11388 c-16 -12 -17 -357 -15 -5693 l3 -5680 5817 -3 c5748 -2
5817 -2 5828 17 12 24 9 11345 -3 11358 -5 4 -2620 9 -5811 11 -4635 2 -5806
0 -5819 -10z m11575 -5665 c2 -3085 2 -5618 0 -5630 l-3 -23 -5765 0 -5764 0
0 5630 0 5630 5765 0 5765 0 2 -5607z"/>
<path d="M712 10702 c-10 -7 -12 -1014 -10 -5003 l3 -4994 4994 -3 4994 -2 68
67 c38 37 69 70 69 74 0 4 -448 454 -995 1001 -547 547 -995 998 -995 1001 0
4 36 49 79 100 306 356 541 744 706 1162 133 338 166 449 239 790 24 113 54
338 67 505 11 146 7 594 -6 695 -60 451 -104 650 -215 970 -103 300 -164 435
-353 780 -230 422 -671 915 -1100 1234 -280 207 -486 334 -734 449 -865 404
-1808 511 -2723 311 -504 -111 -895 -270 -1330 -541 -276 -172 -353 -230 -622
-468 l-123 -109 -995 994 c-547 547 -997 995 -1000 995 -3 0 -11 -4 -18 -8z
m213 -262 l160 -160 -163 0 -162 0 0 160 c0 88 1 160 3 160 1 0 74 -72 162
-160z m275 -275 l95 -95 -268 0 -267 0 0 95 0 95 173 0 172 0 95 -95z m210
-210 l95 -95 -373 0 -372 0 0 95 0 95 278 0 277 0 95 -95z m4610 -91 c204 -19
275 -28 417 -54 564 -102 1097 -312 1533 -603 270 -181 431 -309 633 -507 346
-337 565 -626 772 -1019 251 -473 388 -893 465 -1413 18 -127 40 -393 40 -495
l0 -43 -165 0 c-124 0 -167 -3 -170 -12 -2 -7 -6 -83 -9 -168 -6 -169 -23
-318 -62 -535 -117 -657 -412 -1287 -830 -1777 l-91 -106 -1359 1359 c-747
747 -1366 1359 -1374 1359 -8 0 -38 -24 -67 -52 l-53 -53 -1465 1465 c-1174
1174 -1462 1467 -1453 1478 40 48 386 336 484 404 536 366 948 551 1524 682
234 53 494 86 785 100 76 4 373 -3 445 -10z m-4400 -119 l95 -95 -478 0 -477
0 0 95 0 95 383 0 382 0 95 -95z m210 -210 l95 -95 -583 0 -582 0 0 95 0 95
488 0 487 0 95 -95z m215 -215 l100 -100 -693 0 -692 0 0 100 0 100 593 0 592
0 100 -100z m214 -214 l96 -96 -798 0 -797 0 0 94 c0 54 4 96 10 98 6 2 321 2
702 1 l692 -2 95 -95z m211 -211 l95 -95 -903 0 -902 0 0 95 0 95 808 0 807 0
95 -95z m165 -166 l49 -49 -44 -45 -44 -45 -918 0 -918 0 0 95 0 95 863 2
c474 2 885 2 912 0 45 -3 55 -9 100 -53z m1908 -1907 l1807 -1808 0 -1547 0
-1547 -22 -4 c-76 -15 -304 -38 -458 -46 -99 -5 -184 -11 -190 -15 -6 -4 -10
-68 -10 -166 l0 -159 -118 0 c-206 0 -615 59 -872 126 -328 86 -548 168 -843
315 -455 227 -861 534 -1231 929 -290 310 -597 799 -764 1215 -285 711 -371
1399 -271 2165 98 746 420 1480 908 2070 110 133 241 280 250 280 4 0 820
-814 1814 -1808z m-1989 1748 l29 0 -44 -47 c-24 -27 -62 -69 -83 -95 l-38
-48 -829 0 -829 0 0 98 0 97 882 -2 c486 -2 896 -3 912 -3z m-226 -305 l-72
-95 -748 0 -748 0 0 94 c0 54 4 96 10 98 5 2 374 2 820 0 l810 -2 -72 -95z
m-92 -117 c1 -2 -25 -45 -59 -96 l-62 -92 -677 0 -678 0 0 93 c0 52 2 96 4 98
5 5 1467 1 1472 -3z m-139 -212 c1 -1 -23 -43 -53 -94 l-56 -92 -614 0 -614 0
0 95 0 95 628 2 c564 3 702 2 709 -6z m-123 -207 c3 -3 -17 -45 -43 -94 l-48
-90 -562 -3 -561 -2 0 95 0 95 588 2 c654 3 620 3 626 -3z m-119 -246 c-8 -20
-27 -63 -42 -95 l-26 -58 -513 0 -514 0 0 94 c0 54 4 96 10 98 5 2 255 2 555
0 l545 -2 -15 -37z m-113 -268 l-36 -95 -473 0 -473 0 0 95 0 95 508 0 509 0
-35 -95z m-63 -172 c-11 -32 -24 -74 -30 -95 l-10 -38 -439 0 -440 0 0 95 0
95 463 2 c254 2 465 2 469 0 4 -1 -2 -28 -13 -59z m-49 -161 c0 -4 -11 -45
-24 -92 l-23 -85 -412 -3 -411 -2 0 97 0 98 435 -3 c239 -1 435 -6 435 -10z
m-54 -220 c-6 -17 -36 -160 -36 -168 0 -2 -175 -4 -390 -4 l-390 0 0 94 c0 54
4 96 10 98 5 2 190 2 411 0 374 -2 400 -4 395 -20z m-50 -225 c-3 -17 -8 -60
-12 -94 l-7 -63 -373 0 -374 0 0 93 c0 52 2 96 4 98 2 2 176 3 386 1 l382 -2
-6 -33z m-26 -190 c0 -6 -5 -50 -11 -99 l-12 -88 -358 0 -359 0 0 100 0 100
348 2 c365 3 392 2 392 -15z m-26 -284 c-3 -49 -7 -94 -10 -100 -3 -10 -82
-13 -354 -13 l-350 0 0 100 0 100 360 0 360 0 -6 -87z m-12 -150 c2 -16 2 -61
0 -100 l-4 -73 -349 0 -349 0 0 100 0 100 349 0 350 0 3 -27z m2 -260 c3 -42
6 -87 6 -100 l0 -23 -355 0 -355 0 0 100 0 100 349 0 348 0 7 -77z m10 -165
c3 -18 8 -63 11 -100 l6 -68 -366 0 -365 0 0 100 0 100 355 0 354 0 5 -32z
m28 -243 c4 -33 10 -77 13 -97 l5 -38 -380 0 -380 0 0 100 0 100 367 -2 368
-3 7 -60z m23 -167 c8 -35 35 -169 35 -174 0 -2 -180 -4 -400 -4 l-400 0 0
100 0 100 380 0 380 0 5 -22z m61 -283 c13 -49 23 -93 24 -97 0 -5 -191 -8
-425 -8 l-425 0 0 100 0 100 401 -2 401 -3 24 -90z m5904 -821 l905 -906 -85
-82 c-204 -194 -437 -364 -695 -509 -218 -121 -308 -166 -454 -226 -158 -65
-524 -181 -573 -181 -17 0 -18 74 -18 1405 0 773 3 1405 8 1405 4 0 414 -408
912 -906z m-5851 624 c13 -46 25 -91 28 -100 5 -17 -21 -18 -451 -18 l-456 0
0 100 0 100 428 0 429 0 22 -82z m41 -133 c0 -2 16 -47 35 -100 l34 -95 -494
0 -495 0 0 100 0 100 460 0 c253 0 460 -2 460 -5z m112 -299 c21 -50 38 -94
38 -98 0 -4 -241 -8 -535 -8 l-535 0 0 100 0 100 497 -2 497 -3 38 -89z m98
-216 l50 -100 -590 0 -590 0 0 100 0 100 539 0 540 0 51 -100z m7568 35 l-11
-25 -153 0 -154 0 12 25 11 25 153 0 154 0 -12 -25z m-48 -99 c0 -32 -27 -37
-179 -34 l-151 3 15 23 c16 21 22 22 166 22 120 0 149 -3 149 -14z m-7415
-137 c28 -51 52 -95 53 -100 2 -5 -276 -9 -642 -9 l-646 0 0 100 0 100 593 0
592 0 50 -91z m7353 19 c-15 -22 -22 -23 -172 -26 -86 -1 -156 0 -156 3 0 4 5
15 10 26 10 18 23 19 172 19 l160 0 -14 -22z m-7225 -232 c31 -52 57 -97 57
-100 0 -3 -319 -6 -710 -6 l-710 0 0 100 0 100 653 0 652 -1 58 -93z m7091 9
c-16 -25 -16 -25 -181 -25 -169 0 -169 0 -140 38 7 9 54 12 173 12 l164 0 -16
-25z m-64 -92 c0 -5 -7 -16 -14 -26 -12 -16 -30 -17 -180 -15 l-166 3 15 23
c16 21 21 22 181 22 90 0 164 -3 164 -7z m-6925 -75 c15 -24 45 -66 66 -94 22
-28 39 -54 39 -57 0 -4 -353 -7 -785 -7 l-785 0 0 100 0 100 719 0 718 0 28
-42z m6750 -168 c-17 -19 -30 -20 -198 -20 l-180 0 23 25 c22 24 27 25 189 27
91 2 170 0 175 -4 6 -4 2 -16 -9 -28z m-6567 -78 c33 -43 67 -84 76 -91 9 -8
16 -17 16 -22 0 -5 -378 -9 -870 -9 l-870 0 0 100 0 100 794 0 794 0 60 -78z
m6487 -22 c-17 -19 -31 -20 -230 -20 -199 0 -213 1 -230 20 -18 20 -17 20 230
20 247 0 248 0 230 -20z m-98 -107 l-26 -28 -187 3 -187 3 23 24 c23 25 25 25
214 25 l190 0 -27 -27z m-6188 -100 c50 -53 86 -100 82 -103 -5 -3 -442 -4
-970 -2 l-961 2 0 100 0 100 879 0 879 0 91 -97z m6095 7 c5 0 -1 -11 -14 -25
l-23 -25 -200 0 -200 0 23 24 c15 17 36 26 64 28 31 2 252 1 350 -2z m-123
-130 c-21 -19 -39 -20 -230 -20 l-206 1 24 19 c21 19 39 20 230 20 l206 -1
-24 -19z m-5752 -92 c55 -50 101 -94 101 -97 0 -3 -487 -5 -1082 -4 l-1083 3
-3 95 -3 95 984 0 985 0 101 -92z m5945 2 c50 -49 88 -91 85 -94 -12 -12 -382
-10 -377 3 3 10 190 179 198 180 3 1 45 -40 94 -89z m-307 -15 c-28 -24 -32
-25 -205 -26 -97 0 -190 -2 -205 -3 -45 -3 -51 10 -15 32 31 20 46 22 243 22
l210 -1 -28 -24z m-118 -95 c0 -3 -13 -15 -29 -28 -28 -22 -33 -22 -256 -20
l-228 3 29 20 c27 18 51 21 220 25 105 3 207 5 228 5 20 0 37 -2 36 -5z
m-5363 -31 c10 -12 63 -55 117 -95 l98 -74 -1211 -2 c-665 -2 -1215 -1 -1220
0 -6 2 -10 44 -10 98 l0 94 1103 0 1104 0 19 -21z m6000 -71 c52 -51 94 -95
94 -98 0 -6 -861 -2 -867 4 -4 3 100 86 108 86 3 0 29 23 59 50 l54 50 229 0
230 0 93 -92z m-801 -28 c-28 -19 -47 -20 -280 -20 l-250 1 35 19 c32 17 58
19 280 20 l245 0 -30 -20z m-148 -106 l-38 -25 -257 0 c-141 0 -264 1 -272 1
-8 1 5 12 30 25 44 24 50 24 310 25 l265 0 -38 -26z m-4674 -75 c73 -49 132
-92 132 -95 0 -2 -615 -5 -1368 -7 l-1367 -2 0 98 0 97 1236 0 1235 0 132 -91z
m5836 -4 c90 -90 93 -95 65 -95 -774 -4 -1374 -4 -1374 0 0 5 101 69 123 79 5
2 41 27 80 57 l72 54 470 0 470 0 94 -95z m-1324 -15 c3 -5 -8 -16 -24 -25
-25 -12 -78 -15 -328 -15 -288 1 -297 1 -263 18 30 14 80 18 320 22 157 3 286
7 287 8 1 1 4 -2 8 -8z m-4215 -163 c64 -34 144 -75 178 -91 34 -17 58 -32 53
-35 -5 -3 -712 -5 -1570 -3 l-1561 2 0 95 0 95 1393 0 1392 0 115 -63z m4050
58 c0 -2 -18 -14 -40 -25 -37 -19 -57 -20 -387 -19 l-348 1 65 23 c63 23 75
23 388 24 177 1 322 -1 322 -4z m1699 -90 l95 -95 -1002 -2 c-551 -2 -1002 0
-1002 3 0 3 39 24 88 47 48 23 125 64 172 92 l85 50 735 0 735 0 94 -95z
m-1919 -20 c0 -2 -18 -14 -39 -25 -37 -18 -60 -20 -418 -20 -208 0 -400 0
-428 1 l-50 0 75 24 c73 22 87 23 468 24 215 1 392 -1 392 -4z m-3395 -154
c77 -33 186 -74 243 -92 56 -18 102 -36 102 -39 0 -3 -13 -4 -30 -4 -16 1
-844 2 -1840 3 l-1810 1 0 95 0 95 1597 0 1597 0 141 -59z m5523 -36 l97 -95
-35 0 c-136 -1 -2627 0 -2675 1 l-60 0 130 43 c123 41 322 117 355 136 8 5
477 9 1053 9 l1038 1 97 -95z m-2398 73 c0 -3 -21 -13 -47 -22 -41 -14 -132
-16 -745 -16 -384 0 -698 4 -698 9 0 19 142 24 780 30 366 3 675 6 688 6 12 0
22 -3 22 -7z m-354 -124 l-80 -24 -528 0 -528 0 0 25 0 25 608 -1 607 0 -79
-25z m-2168 -108 c198 -49 289 -66 537 -97 220 -27 687 -30 890 -5 213 26 431
66 580 104 l140 37 1444 2 1444 3 95 -95 c91 -90 94 -95 66 -95 -31 0 -9114 0
-9126 0 -5 0 -8 43 -8 95 l0 95 1880 0 1881 0 177 -44z m1707 2 c-74 -17 -141
-21 -382 -25 l-293 -5 0 26 0 26 383 -1 382 -1 -90 -20z m3630 -260 c52 -51
91 -95 86 -98 -5 -3 -2113 -4 -4685 -2 l-4676 2 0 95 0 95 4591 0 4590 0 94
-92z m211 -211 c52 -52 94 -96 94 -99 0 -2 -15 -3 -32 -2 -18 1 -2174 3 -4790
3 l-4758 1 0 95 0 95 4696 0 4696 0 94 -93z m210 -211 c52 -51 94 -95 94 -97
0 -2 -2202 -3 -4892 -2 l-4893 3 -3 95 -3 95 4801 0 4802 0 94 -94z m134 -131
c11 -13 -535 -15 -4909 -15 -4368 0 -4921 2 -4921 15 0 13 552 15 4909 15
4351 0 4910 -2 4921 -15z"/>
</g>
</svg>
